<svg id="グループ_4" data-name="グループ 4" xmlns="http://www.w3.org/2000/svg" width="513" height="108.41" viewBox="0 0 513 108.41">
  <metadata><?xpacket begin="﻿" id="W5M0MpCehiHzreSzNTczkc9d"?>
<x:xmpmeta xmlns:x="adobe:ns:meta/" x:xmptk="Adobe XMP Core 5.6-c138 79.159824, 2016/09/14-01:09:01        ">
   <rdf:RDF xmlns:rdf="http://www.w3.org/1999/02/22-rdf-syntax-ns#">
      <rdf:Description rdf:about=""/>
   </rdf:RDF>
</x:xmpmeta>
                                                                                                    
                                                                                                    
                                                                                                    
                                                                                                    
                                                                                                    
                                                                                                    
                                                                                                    
                                                                                                    
                                                                                                    
                                                                                                    
                                                                                                    
                                                                                                    
                                                                                                    
                                                                                                    
                                                                                                    
                                                                                                    
                                                                                                    
                                                                                                    
                                                                                                    
                                                                                                    
                           
<?xpacket end="w"?></metadata>
<defs>
    <style>
      .cls-1, .cls-2 {
        fill: #c59a6d;
      }

      .cls-1 {
        fill-opacity: 0;
      }

      .cls-2, .cls-3 {
        fill-rule: evenodd;
      }
    </style>
  </defs>
  <rect id="長方形_3" data-name="長方形 3" class="cls-1" y="37.41" width="513" height="21"/>
  <path id="シェイプ_5" data-name="シェイプ 5" class="cls-2" d="M504.848,1474.7l-2.728,21.92-12.657-15.89-1.81,14.48H484.56l2.715-21.62,12.657,15.86,1.836-14.75h3.08Zm25.529,9.86a11.251,11.251,0,0,1-1.892,6.36,10.147,10.147,0,0,1-3.916,3.47,11.754,11.754,0,0,1-5.35,1.22,10.381,10.381,0,0,1-7.645-2.94,11.157,11.157,0,0,1,.176-15.32,10.929,10.929,0,0,1,7.942-3.06,10.691,10.691,0,0,1,7.74,2.83A9.828,9.828,0,0,1,530.377,1484.56Zm-3.107-.03a7.263,7.263,0,0,0-2.026-5.38,7.424,7.424,0,0,0-5.444-2,7.958,7.958,0,0,0-5.767,2.26,8.126,8.126,0,0,0-.163,11.18,7.317,7.317,0,0,0,5.43,2.18,7.6,7.6,0,0,0,5.687-2.35A8.055,8.055,0,0,0,527.27,1484.53Zm10.575,9.23a1.644,1.644,0,0,1-.554,1.23,1.836,1.836,0,0,1-1.283.51,1.7,1.7,0,0,1-1.27-.53,1.774,1.774,0,0,1-.527-1.3,1.749,1.749,0,0,1,.486-1.25,1.714,1.714,0,0,1,1.229-.5,1.861,1.861,0,0,1,1.351.54A1.754,1.754,0,0,1,537.845,1493.76ZM554,1474.7l-2.567,20.51H548.34l2.229-17.68h-4.106l1.4-2.83H554Zm-144.131,4.8v1.98h-4.205v5.91h5.669v1.97H398v-1.97h5.545v-5.91H399.4v-1.98h10.467Zm6.153-1.19a23.622,23.622,0,0,1,3.832,2.68l-1.464,1.74a22.9,22.9,0,0,0-3.645-2.82Zm9.782,2.51c0.29,0.4.493,0.69,0.607,0.89a6.585,6.585,0,0,0,.857.65,24.721,24.721,0,0,1-9.8,7.72q-0.606.255-1.635,0.72l-1.028-2.09A21.585,21.585,0,0,0,425.8,1480.82Zm9.439-3.11v4.06a35.048,35.048,0,0,1,6.635,2.86l-1.168,1.92a27.773,27.773,0,0,0-5.467-2.68v7.1h-2.2v-13.26h2.2Zm14.05,1.01v7.53h-2.119v-7.53h2.119Zm4.267-.72h2.119v4.67q0,4.05-1.4,5.79a8.96,8.96,0,0,1-4.922,2.63,3.19,3.19,0,0,0-.966-1.97,6.053,6.053,0,0,0,3.941-1.67c0.82-.88,1.23-2.4,1.23-4.55V1478Zm19.642,5.27v1.96h-12.29v-1.96H473.2Z" transform="translate(-222 -1473.59)"/>
  <path id="シェイプ_6" data-name="シェイプ 6" class="cls-3" d="M352.022,1534.39a0.252,0.252,0,0,1,.116.42,3.759,3.759,0,0,0-.6,1.76c0,1.46,1.511,2.18,5.508,2.18a30.123,30.123,0,0,0,6.3-.67c0.325-.07.441,0,0.487,0.21a18.819,18.819,0,0,1,.371,2.27c0.024,0.21-.115.3-0.394,0.35a35.483,35.483,0,0,1-6.925.55c-5.2,0-7.876-1.67-7.876-4.68a6.122,6.122,0,0,1,1.232-3.32C350.837,1533.76,351.418,1534.06,352.022,1534.39Zm5.25-9.1c1.7,0,3.44-.11,4.927-0.2a0.26,0.26,0,0,1,.349.25,15.317,15.317,0,0,1,.115,1.97,0.4,0.4,0,0,1-.4.49,13.439,13.439,0,0,0-5.692,2.3,0.97,0.97,0,0,1-.58.2,0.991,0.991,0,0,1-.489-0.13,5.469,5.469,0,0,0-1.626-.75c1.207-.79,2.23-1.43,3.043-1.92a15.893,15.893,0,0,1-1.9.07,29.443,29.443,0,0,1-4.067-.4,0.339,0.339,0,0,1-.3-0.41c0-.56.046-1.23,0.092-2.07A29.234,29.234,0,0,0,357.272,1525.29Zm25.344,2a29.091,29.091,0,0,1-2.9,10c-1,1.74-2.207,2.67-3.95,2.67-2.045,0-4.113-2.19-4.113-5.97a8.546,8.546,0,0,1,2.627-6.03,10.169,10.169,0,0,1,7.551-2.97c5.576,0,8.853,3.44,8.853,8.05,0,4.32-2.441,7.03-7.157,8.45a0.743,0.743,0,0,1-1-.42,4.833,4.833,0,0,0-1.627-1.46c3.927-.93,7.018-2.55,7.018-6.94a5.272,5.272,0,0,0-5.206-5.38h-0.092Zm-6.67,2.25a6.68,6.68,0,0,0-1.811,4.29c0,2.14.859,3.32,1.58,3.32,0.6,0,1.115-.3,1.743-1.42a26.5,26.5,0,0,0,2.462-8.3A6.961,6.961,0,0,0,375.946,1529.54Zm20.394,13.85c-0.231,0-.255-0.02-0.255-0.26,0-.16.047-1.71,0.047-8.9v-4.62c0-4.59-.047-6.22-0.047-6.36,0-.23.024-0.25,0.255-0.25,0.164,0,.93.04,3.091,0.04h12.617c2.161,0,2.928-.04,3.091-0.04,0.232,0,.255.02,0.255,0.25,0,0.14-.046,1.77-0.046,5.57v5.38c0,7.19.046,8.77,0.046,8.91,0,0.23-.023.26-0.255,0.26h-2c-0.232,0-.256-0.03-0.256-0.26v-1.09H398.571v1.11c0,0.24-.023.26-0.255,0.26H396.34Zm2.231-3.53h14.313v-14.64H398.571v14.64Zm9.387-8.65c1.86,0,2.509-.05,2.65-0.05,0.232,0,.254.03,0.254,0.26v1.53c0,0.23-.022.25-0.254,0.25-0.141,0-.79-0.04-2.65-0.04H406.75v3.08h1.9c2.161,0,2.858-.04,3-0.04,0.255,0,.279.02,0.279,0.25v1.6c0,0.24-.024.26-0.279,0.26-0.14,0-.837-0.05-3-0.05H402.8c-2.161,0-2.858.05-3,.05-0.255,0-.278-0.02-0.278-0.26v-1.6c0-.23.023-0.25,0.278-0.25,0.14,0,.837.04,3,0.04h1.6v-3.08H403.5c-1.905,0-2.556.04-2.695,0.04-0.233,0-.256-0.02-0.256-0.25v-1.53c0-.23.023-0.26,0.256-0.26,0.139,0,.79.05,2.695,0.05H404.4v-2.44h-1.347c-2.092,0-2.812.05-2.95,0.05-0.21,0-.233-0.02-0.233-0.25v-1.56c0-.23.023-0.25,0.233-0.25,0.138,0,.858.04,2.95,0.04h5.39c2.115,0,2.835-.04,2.974-0.04,0.21,0,.233.02,0.233,0.25v1.56c0,0.23-.023.25-0.233,0.25-0.139,0-.859-0.05-2.974-0.05h-1.7v2.44h1.208Zm1.395,2.13c0.232-.11.278-0.07,0.465,0.14a9.2,9.2,0,0,1,1.138,1.67c0.093,0.19.093,0.24-.186,0.37l-1,.54c-0.3.16-.348,0.09-0.465-0.16a7.153,7.153,0,0,0-1.069-1.72c-0.162-.19-0.069-0.21.187-0.35Zm22.508-6.05a29.113,29.113,0,0,1-2.9,10c-1,1.74-2.207,2.67-3.95,2.67-2.045,0-4.113-2.19-4.113-5.97a8.549,8.549,0,0,1,2.626-6.03,10.173,10.173,0,0,1,7.552-2.97c5.576,0,8.852,3.44,8.852,8.05,0,4.32-2.44,7.03-7.156,8.45a0.744,0.744,0,0,1-1-.42,4.813,4.813,0,0,0-1.627-1.46c3.928-.93,7.018-2.55,7.018-6.94a5.272,5.272,0,0,0-5.205-5.38h-0.092Zm-6.67,2.25a6.68,6.68,0,0,0-1.811,4.29c0,2.14.859,3.32,1.58,3.32,0.6,0,1.115-.3,1.743-1.42a26.5,26.5,0,0,0,2.462-8.3A6.958,6.958,0,0,0,425.191,1529.54Zm21.254-.77c-0.21.19-.418,0.35-0.627,0.51a0.893,0.893,0,0,1-.464.26c-0.164,0-.233-0.16-0.372-0.53a5.57,5.57,0,0,0-.79-1.49,13.51,13.51,0,0,0,3.972-4.06,4.549,4.549,0,0,0,.512-1.2c0.7,0.09,1.533.23,2.137,0.37a0.41,0.41,0,0,1,.349.27,0.465,0.465,0,0,1-.232.38l-0.163.13a12.446,12.446,0,0,0,3.323,2.97,7.044,7.044,0,0,0-.884,1.21,0.729,0.729,0,0,1-.418.51,1.1,1.1,0,0,1-.51-0.32,16.171,16.171,0,0,1-2.533-2.74,18.533,18.533,0,0,1-2.556,3.04c0.3,0.02.744,0.02,1.44,0.02h1.883c1.394,0,1.813-.05,1.951-0.05,0.233,0,.256.03,0.256,0.28v1.44c0,0.23-.023.26-0.256,0.26-0.138,0-.557-0.05-1.882-0.05v1.81h0.07c1.742,0,2.277-.05,2.417-0.05,0.255,0,.278.03,0.278,0.26v1.53c0,0.23-.023.25-0.278,0.25-0.14,0-.675-0.04-2.417-0.04h-0.07v5.59c1.022-.33,2.045-0.63,3.02-0.98a5.837,5.837,0,0,0-.138,1.3c0,0.75-.024.72-0.744,0.98-1.812.65-4.182,1.37-6.111,1.88a2.905,2.905,0,0,0-.814.32,0.722,0.722,0,0,1-.371.14,0.384,0.384,0,0,1-.373-0.3,15.038,15.038,0,0,1-.557-1.97,14.411,14.411,0,0,0,2.255-.35l1.649-.39v-6.22h-0.744c-1.742,0-2.276.04-2.417,0.04-0.232,0-.254-0.02-0.254-0.25V1532c0-.23.022-0.26,0.254-0.26,0.141,0,.675.05,2.417,0.05H448.4v-1.81c-1.185,0-1.58.05-1.7,0.05-0.233,0-.256-0.03-0.256-0.26v-1Zm0,6.06c0.3-.12.349-0.09,0.441,0.16a17.305,17.305,0,0,1,.883,3.48c0.046,0.23.024,0.26-.278,0.37l-1.046.4c-0.325.11-.372,0.09-0.418-0.19a18.582,18.582,0,0,0-.837-3.48c-0.093-.23-0.046-0.28.255-0.39Zm7.227,0.25a0.274,0.274,0,0,1,.092.51,0.824,0.824,0,0,0-.3.49c-0.186.58-.442,1.3-0.675,1.86-0.162.37-.209,0.53-0.372,0.53a1.382,1.382,0,0,1-.487-0.18,4.707,4.707,0,0,0-.907-0.33,17.25,17.25,0,0,0,.837-2.6,7.877,7.877,0,0,0,.139-0.86C452.533,1534.67,453.253,1534.9,453.672,1535.08Zm2.485-6.28a20.282,20.282,0,0,1-.836,2.04,0.581,0.581,0,0,1-.4.46,0.848,0.848,0,0,1-.464-0.32,5.23,5.23,0,0,0-1.3-1.02,16.59,16.59,0,0,0,1.836-5.22,6.6,6.6,0,0,0,.116-1.42,14.193,14.193,0,0,1,2.021.51c0.279,0.1.372,0.19,0.372,0.33a0.552,0.552,0,0,1-.14.35,2.745,2.745,0,0,0-.3.99c-0.07.37-.163,0.77-0.256,1.14h1.58v-1.09a21.011,21.011,0,0,0-.162-3.25c0.79,0.02,1.6.07,2.417,0.16,0.231,0.03.324,0.12,0.324,0.26a1.558,1.558,0,0,1-.138.56,8.872,8.872,0,0,0-.14,2.25v1.11h1.3c1.859,0,2.485-.05,2.626-0.05,0.232,0,.254.03,0.254,0.28v1.72c0,0.23-.022.25-0.254,0.25-0.141,0-.767-0.04-2.626-0.04h-1.347c-0.047,1.16-.094,2.2-0.187,3.13h1.882c2.115,0,2.835-.05,2.974-0.05,0.209,0,.233.03,0.233,0.26v1.74c0,0.23-.024.25-0.233,0.25-0.139,0-.859-0.04-2.974-0.04h-1.486a13.6,13.6,0,0,0,5.25,7,5.819,5.819,0,0,0-1.185,1.58,0.676,0.676,0,0,1-.418.46,0.881,0.881,0,0,1-.487-0.3,14.907,14.907,0,0,1-4.392-6.38,12.24,12.24,0,0,1-5.624,6.66,2.035,2.035,0,0,1-.557.26,0.743,0.743,0,0,1-.442-0.52,4.789,4.789,0,0,0-1.185-1.39c3.254-1.46,4.949-3.41,5.786-6.19l0.28-1.18h-0.745c-2.091,0-2.811.04-2.951,0.04-0.232,0-.255-0.02-0.255-0.25v-1.74c0-.23.023-0.26,0.255-0.26,0.14,0,.86.05,2.951,0.05h1.023c0.093-.91.139-1.95,0.185-3.13h-2.184Zm18.373,9.37a3.563,3.563,0,0,0,1.928,1.95,13.45,13.45,0,0,0,4.277.44c3,0,6.529-.19,9.99-0.53a4.347,4.347,0,0,0-.628,1.83c-0.092.74-.115,0.74-0.858,0.79-2.951.14-5.718,0.2-8.133,0.2-2.393,0-4.462-.13-5.414-0.62a6.2,6.2,0,0,1-2.417-2.11c-0.72.69-1.6,1.46-2.347,2.06a1.7,1.7,0,0,0-.465.47,0.426,0.426,0,0,1-.348.2,0.44,0.44,0,0,1-.325-0.27,20.92,20.92,0,0,1-.952-2.18,10.709,10.709,0,0,0,1.371-.72,12.938,12.938,0,0,0,2.043-1.51v-5.13h-1.138c-1.255,0-1.58.05-1.695,0.05-0.257,0-.28-0.02-0.28-0.28v-1.76c0-.23.023-0.26,0.28-0.26,0.115,0,.44.05,1.695,0.05h1.465c1.23,0,1.6-.05,1.742-0.05,0.233,0,.256.03,0.256,0.26,0,0.14-.047.79-0.047,2.2v4.92Zm-3.416-15.31a0.531,0.531,0,0,1,.28-0.14,0.376,0.376,0,0,1,.23.12,17.423,17.423,0,0,1,2.906,3.45c0.139,0.19.115,0.23-.139,0.42l-1.326,1.11a0.508,0.508,0,0,1-.277.17,0.283,0.283,0,0,1-.209-0.19,18.4,18.4,0,0,0-2.836-3.62c-0.186-.16-0.139-0.23.116-0.42Zm7.644,4.15c-2.415,0-3.2.05-3.346,0.05-0.231,0-.254-0.03-0.254-0.28v-1.51c0-.25.023-0.28,0.254-0.28,0.141,0,.931.05,3.346,0.05h0.256a9.287,9.287,0,0,0-1.209-2.14c-0.162-.2-0.092-0.3.21-0.39l1.58-.42a0.413,0.413,0,0,1,.488.09,8.42,8.42,0,0,1,1.185,1.98c0.116,0.23.024,0.3-.209,0.39l-1.371.49h3.671a15.4,15.4,0,0,0,.907-1.83,6.983,6.983,0,0,0,.395-1.21,20.8,20.8,0,0,1,2.229.51,0.361,0.361,0,0,1,.3.33,0.484,0.484,0,0,1-.232.37,1.25,1.25,0,0,0-.419.46c-0.254.42-.534,0.88-0.882,1.37H486.4c2.255,0,3.045-.05,3.184-0.05,0.256,0,.277.03,0.277,0.28v1.51c0,0.25-.021.28-0.277,0.28-0.139,0-.929-0.05-3.184-0.05h-3.068a14.7,14.7,0,0,1-.6,1.35h2.208c2.069,0,2.811-.05,2.929-0.05,0.254,0,.278.02,0.278,0.26,0,0.13-.047.85-0.047,2.52v5.52c0,1.65.047,2.28,0.047,2.42,0,0.25-.024.28-0.278,0.28-0.118,0-.86-0.05-2.929-0.05h-4.973c-2.067,0-2.81.05-2.951,0.05-0.254,0-.277-0.03-0.277-0.28,0-.14.045-0.77,0.045-2.42v-5.52c0-1.67-.045-2.39-0.045-2.52,0-.24.023-0.26,0.277-0.26,0.141,0,.884.05,2.951,0.05h0.465c0.21-.45.372-0.89,0.534-1.35h-2.207Zm0.256,4.45h6.855v-1.32h-6.855v1.32Zm6.855,2.95v-1.3h-6.855v1.3h6.855Zm0,1.62h-6.855v1.4h6.855v-1.4Zm10.286-6.58a0.41,0.41,0,0,1,.442-0.24,16.175,16.175,0,0,1,4.46,2.28,0.444,0.444,0,0,1,.256.35,0.644,0.644,0,0,1-.094.25,9.14,9.14,0,0,1-1.02,1.76,0.525,0.525,0,0,1-.3.24,0.474,0.474,0,0,1-.28-0.14,20.255,20.255,0,0,0-4.693-2.53C495.5,1530.49,495.875,1529.82,496.155,1529.45Zm3.764,8.6a39.143,39.143,0,0,0,6.367-4.01,42.5,42.5,0,0,0,6.691-6.47,11.532,11.532,0,0,0,.675,2.6,1.143,1.143,0,0,1,.115.44,0.73,0.73,0,0,1-.256.53,43.013,43.013,0,0,1-5.9,5.36,54.358,54.358,0,0,1-6.948,4.36,7.654,7.654,0,0,0-1.347.79,0.5,0.5,0,0,1-.372.18,0.606,0.606,0,0,1-.465-0.27,15.1,15.1,0,0,1-1.719-2.37A10.788,10.788,0,0,0,499.919,1538.05Zm-0.952-13.94a0.364,0.364,0,0,1,.58-0.18,15.813,15.813,0,0,1,4.369,2.57,0.366,0.366,0,0,1,.186.3,0.548,0.548,0,0,1-.094.3,9.637,9.637,0,0,1-1.185,1.74,0.252,0.252,0,0,1-.233.14,0.616,0.616,0,0,1-.348-0.16,22.251,22.251,0,0,0-4.507-2.85C498.13,1525.36,498.572,1524.71,498.967,1524.11Zm32.706,1.28a3.485,3.485,0,0,0,1.6-.21,0.386,0.386,0,0,1,.256-0.09,0.779,0.779,0,0,1,.395.18,8.569,8.569,0,0,1,1.51,1.62,0.489,0.489,0,0,1-.186.77,4.087,4.087,0,0,0-.858,1.02,37.57,37.57,0,0,1-2.974,4.34,55.436,55.436,0,0,1,6.435,5.61,0.551,0.551,0,0,1,.186.33,0.576,0.576,0,0,1-.163.35,12.181,12.181,0,0,1-1.556,1.57,0.375,0.375,0,0,1-.28.14,0.489,0.489,0,0,1-.324-0.18,42.147,42.147,0,0,0-6.041-5.76,33.524,33.524,0,0,1-7.808,6.13,1.5,1.5,0,0,1-.533.18,0.514,0.514,0,0,1-.395-0.21,6.33,6.33,0,0,0-1.954-1.5,28.3,28.3,0,0,0,8.18-5.92,28.623,28.623,0,0,0,4.368-5.82l-6,.02c-1.207,0-2.415.05-3.671,0.14-0.185.02-.256-0.14-0.3-0.39a13.673,13.673,0,0,1-.207-2.42c1.253,0.1,2.415.1,3.926,0.1h6.389Zm23.508,6.63a13.281,13.281,0,0,1-1.371,5.92,11.668,11.668,0,0,1-4.089,4.38,1.449,1.449,0,0,1-.7.28,0.69,0.69,0,0,1-.487-0.23,5.987,5.987,0,0,0-2.069-1.23,10.333,10.333,0,0,0,4.625-4.13,9.859,9.859,0,0,0,1.185-4.99h-4.415c-1.162,0-2.3.07-3.485,0.14-0.209.02-.28-0.14-0.3-0.44a14.075,14.075,0,0,1-.186-2.23c1.3,0.12,2.6.12,3.95,0.12h10.434c1.811,0,3.16-.05,4.531-0.14,0.231,0,.254.14,0.254,0.46,0.023,0.31.023,1.49,0,1.79a0.321,0.321,0,0,1-.348.39c-1.209-.04-2.812-0.09-4.415-0.09h-3.113Zm-4.6-5.38c-1.068,0-2,.05-3.3.09a0.334,0.334,0,0,1-.395-0.39c-0.071-.56-0.094-1.39-0.163-2.23,1.627,0.09,2.812.12,3.857,0.12h5.2c1.3,0,2.765-.03,3.926-0.1,0.233,0,.28.14,0.28,0.44a10.266,10.266,0,0,1,0,1.7c0,0.32-.047.44-0.3,0.44-1.254-.05-2.624-0.07-3.9-0.07h-5.2Zm28.828-2.16a0.523,0.523,0,0,1,.278.37,0.785,0.785,0,0,1-.233.47,7.42,7.42,0,0,0-.952,1.92c-1.3,3.55-2.532,6.96-4,10.44,3.578-.3,5.53-0.48,8.132-0.88a22.859,22.859,0,0,0-2.579-3.71c0.7-.37,1.371-0.77,2.022-1.12a0.4,0.4,0,0,1,.557.14,32.756,32.756,0,0,1,4.7,7.59,0.577,0.577,0,0,1,.092.3,0.489,0.489,0,0,1-.3.4,12.1,12.1,0,0,1-1.766.95,0.713,0.713,0,0,1-.279.07,0.392,0.392,0,0,1-.325-0.33c-0.279-.65-0.536-1.25-0.813-1.85-3.719.55-7.251,0.95-11.039,1.34a7.718,7.718,0,0,0-2.718.56,0.432,0.432,0,0,1-.672-0.23,21.57,21.57,0,0,1-.814-3c0.929,0.07,1.9.05,2.834,0.03,1.65-4.16,2.859-7.59,4.067-11.49a12.285,12.285,0,0,0,.673-3.17A12.56,12.56,0,0,1,579.408,1524.48Zm25.829,13.69a0.414,0.414,0,0,1-.44.42,14.114,14.114,0,0,1-1.65.11,0.3,0.3,0,0,1-.3-0.37c0-.83,0-1.99.021-2.83-2.067,1.07-2.81,1.97-2.81,3.09,0,0.97.79,1.6,3.228,1.6a39.046,39.046,0,0,0,5.786-.47,0.252,0.252,0,0,1,.327.26,10.378,10.378,0,0,1,.207,1.9c0.024,0.28-.068.44-0.254,0.44a40.681,40.681,0,0,1-5.762.3c-3.812,0-5.833-1.13-5.833-3.82,0-2.23,1.394-3.86,4.9-5.66-0.071-1.19-.35-1.65-1.394-1.61a5.672,5.672,0,0,0-3.207,1.67,32.7,32.7,0,0,0-2.325,2.53,0.415,0.415,0,0,1-.278.21,0.477,0.477,0,0,1-.256-0.16,11.115,11.115,0,0,1-1.324-1.53,0.364,0.364,0,0,1-.094-0.21,0.346,0.346,0,0,1,.163-0.26,23.7,23.7,0,0,0,4.857-5.75c-1.093.05-2.347,0.07-3.718,0.07-0.209,0-.279-0.11-0.326-0.37-0.068-.37-0.162-1.23-0.231-1.93a50.14,50.14,0,0,0,5.344-.02,18.214,18.214,0,0,0,.7-1.99,5.642,5.642,0,0,0,.163-1.42,14.66,14.66,0,0,1,2.649.65,0.413,0.413,0,0,1,.278.39,0.439,0.439,0,0,1-.162.35,1.925,1.925,0,0,0-.395.56c-0.139.32-.254,0.63-0.534,1.25a35.776,35.776,0,0,0,4.229-.72,0.262,0.262,0,0,1,.372.24,7.821,7.821,0,0,1,.233,1.67c0.021,0.23-.071.32-0.395,0.37-1.745.25-3.743,0.51-5.438,0.69a24.087,24.087,0,0,1-1.743,2.58l0.024,0.04a4.7,4.7,0,0,1,2.323-.72,2.568,2.568,0,0,1,2.835,2.51c0.906-.42,2.229-1.02,3.414-1.62a7.108,7.108,0,0,0,1.768-1.26,15.053,15.053,0,0,1,1.625,2.04,0.93,0.93,0,0,1,.186.52,0.339,0.339,0,0,1-.348.32,7.692,7.692,0,0,0-1.418.35c-1.51.53-3.019,1.04-5,1.85v3.74Zm-239.276,26.36a2.214,2.214,0,0,0,1.278-.35,0.719,0.719,0,0,1,.4-0.16,0.779,0.779,0,0,1,.418.19,7.379,7.379,0,0,1,1.581,1.41,0.575,0.575,0,0,1,.185.42,0.584,0.584,0,0,1-.256.44,2.941,2.941,0,0,0-.7.88,36.3,36.3,0,0,1-3.416,5.62,19.937,19.937,0,0,1,2.51,2.34,0.456,0.456,0,0,1,.139.32,0.471,0.471,0,0,1-.139.31,15.388,15.388,0,0,1-1.441,1.46,0.468,0.468,0,0,1-.279.11,0.372,0.372,0,0,1-.255-0.14,26.875,26.875,0,0,0-2.254-2.25,28.37,28.37,0,0,1-7.413,5.8,1.224,1.224,0,0,1-.581.21,0.7,0.7,0,0,1-.441-0.21,6.7,6.7,0,0,0-2.207-1.18,28.032,28.032,0,0,0,8.55-6.29,19.775,19.775,0,0,0-3.346-2.18c0.511-.55,1-1.16,1.534-1.64a0.424,0.424,0,0,1,.3-0.17,0.585,0.585,0,0,1,.233.1,22.692,22.692,0,0,1,3,1.85,22.6,22.6,0,0,0,2.718-4.59l-5.763.11a27.822,27.822,0,0,1-4.973,5.22,0.807,0.807,0,0,1-.464.21,0.515,0.515,0,0,1-.372-0.16,9.828,9.828,0,0,0-1.952-1.07,25.871,25.871,0,0,0,6.576-7.28,8.561,8.561,0,0,0,1.255-2.85,14.313,14.313,0,0,1,2.718,1.13,0.4,0.4,0,0,1,.257.37,0.635,0.635,0,0,1-.28.47,1.974,1.974,0,0,0-.488.48c-0.186.33-.325,0.56-0.721,1.16Zm3.02-3.2a0.239,0.239,0,0,1,.349.05,10.455,10.455,0,0,1,2.208,2.48,0.233,0.233,0,0,1-.069.37l-0.976.72a0.242,0.242,0,0,1-.395-0.07,11.413,11.413,0,0,0-2.348-2.69Zm2.069-1.51a0.237,0.237,0,0,1,.348.05,9.713,9.713,0,0,1,2.208,2.39,0.271,0.271,0,0,1-.071.42l-0.928.71a0.238,0.238,0,0,1-.4-0.07,11.137,11.137,0,0,0-2.323-2.66Zm18.534,15.55c0,1.6.024,2.96,0.07,4.82a0.3,0.3,0,0,1-.348.39,18.007,18.007,0,0,1-2.323,0,0.28,0.28,0,0,1-.327-0.37c0.024-1.67.094-3.17,0.094-4.75v-5.41a40.424,40.424,0,0,1-6.39,4.46,0.65,0.65,0,0,1-.348.09,0.656,0.656,0,0,1-.489-0.23,8.44,8.44,0,0,0-2-1.37,39.47,39.47,0,0,0,12.269-9.61,6.671,6.671,0,0,0,1.463-2.38,20.428,20.428,0,0,1,2.58,1.62,0.405,0.405,0,0,1,.185.35,0.679,0.679,0,0,1-.324.51,7.5,7.5,0,0,0-1.395,1.27,37,37,0,0,1-2.719,2.93v7.68Zm17.49-10.86a9.98,9.98,0,0,0-1.116-2.86,25.5,25.5,0,0,1,3.114-.25c0.349,0,.464.12,0.464,0.7a10.14,10.14,0,0,0,.326,2.32l0.488,2.01,6.622-1.71a3.537,3.537,0,0,0,1.487-.63,0.467,0.467,0,0,1,.348-0.16,0.884,0.884,0,0,1,.465.18,9.573,9.573,0,0,1,1.673,1.42,0.56,0.56,0,0,1,.187.39,0.636,0.636,0,0,1-.256.47,3.6,3.6,0,0,0-.512.67,26.706,26.706,0,0,1-3.532,5.47,0.429,0.429,0,0,1-.372.21,1.007,1.007,0,0,1-.51-0.21,7.688,7.688,0,0,0-1.952-.74,18.389,18.389,0,0,0,3.346-4.68l-6.321,1.69,1.395,5.52c0.372,1.42,1.092,3.95,1.394,5.04a0.391,0.391,0,0,1-.3.6,12.249,12.249,0,0,1-1.836.56c-0.325.04-.441,0.09-0.534-0.28-0.3-1.14-.814-3.37-1.232-5.01l-1.464-5.69-1.905.51c-1.023.3-2.462,0.81-3.346,1.16a1.056,1.056,0,0,1-.395.12,0.468,0.468,0,0,1-.418-0.33,17.124,17.124,0,0,1-.976-2.36c1.556-.26,2.719-0.54,4.368-0.95l2-.54Zm23.135,2.5a30.346,30.346,0,0,1,8.365-1.92c4.159,0,6.831,2.5,6.831,6.15,0,3.04-1.324,4.96-4.089,6.44a19.429,19.429,0,0,1-5.9,1.93c-0.465.09-.651,0.07-0.813-0.37a4.272,4.272,0,0,0-1.627-1.83,21.676,21.676,0,0,0,6.3-1.72c1.975-1,3.207-2.48,3.207-4.62,0-2.18-1.418-3.52-4-3.52-2.09,0-4.855.83-8.387,2.39a14.445,14.445,0,0,0-1.6.83,1.109,1.109,0,0,1-.628.35,0.88,0.88,0,0,1-.674-0.49,13.253,13.253,0,0,1-1.486-2.41A21.107,21.107,0,0,0,430.209,1567.01Zm12.617-4.91c0.116-.1.208-0.07,0.349,0.04a10.886,10.886,0,0,1,2.207,2.48,0.242,0.242,0,0,1-.07.38l-0.975.71a0.238,0.238,0,0,1-.395-0.07,11.825,11.825,0,0,0-2.348-2.69Zm2.068-1.51a0.235,0.235,0,0,1,.348.04,9.732,9.732,0,0,1,2.208,2.39,0.27,0.27,0,0,1-.07.42l-0.93.72a0.237,0.237,0,0,1-.394-0.07,10.975,10.975,0,0,0-2.324-2.67Zm20.3,2.04a0.571,0.571,0,0,1,.186.37,0.462,0.462,0,0,1-.326.44,4.523,4.523,0,0,0-1.115.81c-2,1.79-4.555,4.18-6.344,6.03a1.029,1.029,0,0,0-.3.52,0.578,0.578,0,0,0,.3.41,64.245,64.245,0,0,1,8.644,7.31,0.576,0.576,0,0,1,.163.3,0.412,0.412,0,0,1-.163.28c-0.535.58-1.208,1.25-1.6,1.6a0.582,0.582,0,0,1-.326.19,0.419,0.419,0,0,1-.279-0.21,58.211,58.211,0,0,0-8.458-7.84,2.362,2.362,0,0,1-1.231-1.95,2.955,2.955,0,0,1,1.139-2.04c1.975-2.14,3.9-4.06,5.9-6.24a6.807,6.807,0,0,0,1.255-1.74A18.01,18.01,0,0,1,465.2,1562.63Zm17.558-.77a0.481,0.481,0,0,1,.279.84,2.641,2.641,0,0,0-.418,1.09c-0.327,1.58-.513,3.22-0.651,4.43a23.676,23.676,0,0,0-.071,2.55c0.512-.9,1-1.78,1.627-2.97a4.7,4.7,0,0,0,.722,1.51,0.544,0.544,0,0,1,.138.37,1.085,1.085,0,0,1-.232.58,19.247,19.247,0,0,0-1.371,2.97,2.809,2.809,0,0,0-.115.7,0.328,0.328,0,0,1-.3.37c-0.277.07-1.276,0.21-1.859,0.28a0.349,0.349,0,0,1-.325-0.3,14.891,14.891,0,0,1-.7-4.71,48.683,48.683,0,0,1,.557-5.78,21.592,21.592,0,0,0,.186-2.65A12.824,12.824,0,0,1,482.753,1561.86Zm7.551-.39c0.466,0.12.511,0.23,0.466,0.63a8,8,0,0,0-.047,1.06c0.162,2.21.324,4.32,0.324,5.99,0,3.29-.534,6.15-1.765,8.05a12.67,12.67,0,0,1-3.833,3.73,0.8,0.8,0,0,1-.465.17,0.666,0.666,0,0,1-.489-0.26,5.415,5.415,0,0,0-1.975-1.07,11.433,11.433,0,0,0,3.95-3.11c1.349-1.83,1.953-3.73,1.953-7.4,0-1.64-.117-4.06-0.279-5.54a11.017,11.017,0,0,0-.489-2.53A13.37,13.37,0,0,1,490.3,1561.47Zm16.584,2.34a15.828,15.828,0,0,0,.231-2.57,16.354,16.354,0,0,1,2.788.76,0.473,0.473,0,0,1,.209.82,2.826,2.826,0,0,0-.463.88c-0.3.95-.536,1.81-0.837,2.78a17.38,17.38,0,0,1,1.813-.09c2.184,0,3.369,1.48,3.369,4.29a19.9,19.9,0,0,1-1.256,7.45,3.332,3.332,0,0,1-3.136,2.18,7.651,7.651,0,0,1-2.3-.26,0.6,0.6,0,0,1-.417-0.65,6.687,6.687,0,0,0-.442-2.16,6.907,6.907,0,0,0,2.556.52c0.766,0,1.114-.28,1.486-1.23a17.866,17.866,0,0,0,.907-5.76c0-1.65-.3-2.16-1.324-2.16a14.288,14.288,0,0,0-1.953.17,64.1,64.1,0,0,1-4.67,10.9,0.382,0.382,0,0,1-.6.21,11.109,11.109,0,0,1-1.6-1.02,0.487,0.487,0,0,1-.186-0.35,0.406,0.406,0,0,1,.094-0.25,49.148,49.148,0,0,0,4.251-9.1c-0.9.14-1.65,0.28-2.276,0.4a6.152,6.152,0,0,0-1.279.37,0.512,0.512,0,0,1-.743-0.3,21.941,21.941,0,0,1-.722-2.39c1.023,0,2.046-.07,3.068-0.17,0.976-.09,1.837-0.21,2.742-0.34C506.561,1565.41,506.724,1564.6,506.888,1563.81Zm9.456,1.56a0.319,0.319,0,0,1,.442.11,15.532,15.532,0,0,1,3.856,5.64,0.326,0.326,0,0,1-.092.46,9.41,9.41,0,0,1-1.744,1.16,0.327,0.327,0,0,1-.534-0.18,15.666,15.666,0,0,0-3.811-6.01A19.672,19.672,0,0,1,516.344,1565.37Zm14.375,1.32a0.486,0.486,0,0,1,.371.44,0.711,0.711,0,0,1-.115.35,4.351,4.351,0,0,0-.466,1.23,38.452,38.452,0,0,0-.557,4.22,11.329,11.329,0,0,1,7.761-3.67c3.393,0,5.413,1.98,5.413,4.97a5.691,5.691,0,0,1-3.508,5.2,20.594,20.594,0,0,1-5.949,1.6,0.734,0.734,0,0,1-.929-0.31,6.063,6.063,0,0,0-1.58-1.97,19.159,19.159,0,0,0,6.391-1.3c1.881-.81,2.741-2.02,2.741-3.5,0-1.25-.79-2.39-2.788-2.39-2.046,0-4.507,1.32-6.692,3.53a6.2,6.2,0,0,0-1,1.27c-0.141.23-.233,0.23-0.536,0.17-0.533-.19-1.091-0.4-1.58-0.63a0.392,0.392,0,0,1-.324-0.47c0.139-2.69.442-5.42,0.719-7.49a14.211,14.211,0,0,0,.21-2.09A13.517,13.517,0,0,1,530.719,1566.69Zm0.58-5.87a0.385,0.385,0,0,1,.442-0.12,15.531,15.531,0,0,1,4.554,2.76,0.346,0.346,0,0,1,.163.26,0.673,0.673,0,0,1-.116.28,14.617,14.617,0,0,1-1.185,1.62,0.408,0.408,0,0,1-.256.19,0.4,0.4,0,0,1-.28-0.17,18.606,18.606,0,0,0-4.693-3.01A12.452,12.452,0,0,1,531.3,1560.82Zm22.857,13.15c0,1.63.023,3.55,0.023,4.69,0,1.18-.138,1.79-0.743,2.23-0.512.37-1.093,0.48-2.649,0.48-0.72,0-.72,0-0.884-0.72a6.6,6.6,0,0,0-.649-1.76,17.913,17.913,0,0,0,1.951.09c0.466,0,.6-0.11.6-0.69v-4.69l-1.255.4a3.252,3.252,0,0,0-.766.34,0.629,0.629,0,0,1-.372.17,0.3,0.3,0,0,1-.3-0.28,22.8,22.8,0,0,1-.44-2.3,19.181,19.181,0,0,0,2.137-.46c0.3-.07.628-0.16,1-0.28v-4.27h-0.418c-1.65,0-2.161.05-2.3,0.05-0.233,0-.257-0.03-0.257-0.26v-1.76c0-.23.024-0.26,0.257-0.26,0.138,0,.649.05,2.3,0.05h0.418v-1.11a19.521,19.521,0,0,0-.185-3.3c0.882,0.03,1.672.07,2.44,0.16a0.358,0.358,0,0,1,.372.26,1.2,1.2,0,0,1-.141.49,7.1,7.1,0,0,0-.139,2.34v1.16c1.557,0,2.069-.05,2.208-0.05,0.232,0,.256.03,0.256,0.26v1.76c0,0.23-.024.26-0.256,0.26-0.139,0-.651-0.05-2.208-0.05v3.48c0.837-.3,1.7-0.63,2.487-0.97a14.971,14.971,0,0,0-.094,1.6c0.024,0.74.024,0.72-.651,1-0.557.23-1.138,0.48-1.742,0.71v1.23Zm4.949,6.5c-2.254,0-3.044.05-3.183,0.05-0.209,0-.233-0.03-0.233-0.26v-1.74c0-.23.024-0.25,0.233-0.25,0.139,0,.929.04,3.183,0.04h7.528c2.255,0,3.045-.04,3.16-0.04,0.233,0,.257.02,0.257,0.25v1.74c0,0.23-.024.26-0.257,0.26-0.115,0-.9-0.05-3.16-0.05h-7.528Zm6.134-18.84c2.022,0,2.7-.04,2.859-0.04,0.233,0,.254.02,0.254,0.25,0,0.14-.045,1.07-0.045,3.09v7.6c0,2,.045,2.95.045,3.09,0,0.26-.021.28-0.254,0.28-0.162,0-.837-0.05-2.859-0.05h-4.484c-2,0-2.673.05-2.835,0.05-0.233,0-.256-0.02-0.256-0.28,0-.14.047-1.09,0.047-3.09v-7.6c0-2.02-.047-2.95-0.047-3.09,0-.23.023-0.25,0.256-0.25,0.162,0,.837.04,2.835,0.04h4.484Zm-5.205,2.18v3.74h5.927v-3.74h-5.927Zm5.927,5.89h-5.927v4.02h5.927v-4.02Zm13.629-2.22a16.7,16.7,0,0,1,5.323-1.16c3.112,0,4.9,2.11,4.9,5.52a9.066,9.066,0,0,1-1.883,5.54,13,13,0,0,1-4.484,3.69,1.061,1.061,0,0,1-.395.12,0.747,0.747,0,0,1-.557-0.3,5.687,5.687,0,0,0-1.928-1.23,12.66,12.66,0,0,0,5.111-3.88,6.769,6.769,0,0,0,1.277-4.1c0-1.93-.814-2.93-2.161-2.93a7.787,7.787,0,0,0-3.647,1,11.6,11.6,0,0,0-1.975,1.11,0.862,0.862,0,0,1-.512.24,0.913,0.913,0,0,1-.651-0.51,16.266,16.266,0,0,1-1.185-2.44A12.144,12.144,0,0,0,579.59,1567.48Zm8.482-5.34a0.333,0.333,0,0,1,.3.42,18.429,18.429,0,0,1-.511,2.04c-0.07.23-.141,0.35-0.326,0.33a30.758,30.758,0,0,1-6.739-1.79,0.342,0.342,0,0,1-.162-0.46,11.017,11.017,0,0,1,.7-2.19A29.236,29.236,0,0,0,588.072,1562.14Zm16.514,16.52a3.37,3.37,0,1,1-3.369-3.34A3.347,3.347,0,0,1,604.586,1578.66Zm-5.3,0a1.929,1.929,0,1,0,1.93-1.93A1.89,1.89,0,0,0,599.287,1578.66Z" transform="translate(-222 -1473.59)"/>
</svg>
